{
  "changelogDate": "20220307092453",
  "fields": [
    {
      "fieldName": "caserne",
      "fieldType": "String"
    },
    {
      "fieldName": "numero",
      "fieldType": "Integer"
    }
  ],
  "name": "Caserne",
  "pagination": "pagination",
  "readOnly": false,
  "relationships": [],
  "service": "no"
}
